{
    "RN ten Doeschate": 4,
    "J Yadav": 4.14,
    "V Kohli": 5,
    "R Ashwin": 5.87,
    "S Nadeem": 6.14,
    "Parvez Rasool": 6.2,
    "MC Henriques": 6.56,
    "Z Khan": 6.63,
    "M Vijay": 7,
    "GB Hogg": 7.05
}